Getting started with 17lands data in R – Joel Nitta
…
# Have a look at some of the card names
head(cards)

[1] "Abrade"                     "Abuelo's Awakening"         "Abuelo, Ancestral Echo"     "Abyssal Gorestalker"        "Aclazotz, Deepest Betrayal" "Acolyte of Aclazotz"       

Next, use the function on each one, and save the results to a dataframe:

win_rate <-
  map_df(cards, ~card_wr(., games_data))

win_rate

# A tibble: 291 × 10
   card             games_played_n game_played_wr opening_hand_n opening_hand_wr
   <chr>                     <dbl>          <dbl>          <dbl>           <dbl>
 1 Abrade                   275876          0.565          47592           0.564
 2 Abuelo's Awaken…           6662          0.512            995           0.457
 3 Abuelo, Ancestr…          27197          0.560           4654           0.564
 4 Abyssal Goresta…          19564          0.511           2955           0.513
 5 Aclazotz, Deepe…          14642          0.591           2512           0.682
 6 Acolyte of Acla…          51506          0.490           8344           0.461
 7 Acrobatic Leap            40362          0.555           6033           0.540
 8 Adaptive Gemgua…         142381          0.545          22988           0.534
 9 Akal Pakal, Fir…          37520          0.579           6579           0.651
10 Akawalli, the S…          41977          0.530           7094           0.526
# ℹ 281 more rows
# ℹ 5 more variables: game_in_hand_n <dbl>, game_in_hand_wr <dbl>,
#   game_not_seen_n <dbl>, game_not_seen_wr <dbl>, iwd <dbl>

We can see the top-performing cards by sorting by game-in-hand win-rate:

win_rate %>%
  arrange(desc(game_in_hand_wr))

# A tibble: 291 × 10
   card                          games_played_n game_played_wr opening_hand_n opening_hand_wr game_in_hand_n game_in_hand_wr game_not_seen_n game_not_seen_wr    iwd
   <chr>                                  <dbl>          <dbl>          <dbl>           <dbl>          <dbl>           <dbl>           <dbl>            <dbl>  <dbl>
 1 Bonehoard Dracosaur                    16632          0.607           2906           0.700           7027           0.704            9588            0.535 0.169 
 2 Aclazotz, Deepest Betrayal             14642          0.591           2512           0.682           6486           0.690            8076            0.512 0.178 
 3 Palani's Hatcher                       31805          0.594           5407           0.672          13034           0.674           18484            0.536 0.138 
 4 Kitesail Larcenist                     36542          0.597           6503           0.646          15896           0.656           19906            0.545 0.110 
 5 Unstable Glyphbridge                   33272          0.590           5712           0.635          14337           0.653           18629            0.539 0.114 
 6 Magmatic Galleon                       34727          0.589           5722           0.651          13919           0.653           20509            0.544 0.109 
 7 Sanguine Evangelist                    34346          0.593           6157           0.668          14469           0.653           19722            0.549 0.103 
 8 Huatli, Poet of Unity                  14170          0.581           2536           0.663           6006           0.650            8082            0.529 0.122 
 9 Breeches, Eager Pillager               34149          0.596           6261           0.659          14371           0.649           19435            0.555 0.0946
10 Sentinel of the Nameless City          27881          0.583           5022           0.673          12111           0.645           15621            0.535 0.110 
# ℹ 281 more rows
…
