ニッタ ジョエル - Making a fern family tree
…
Rooted; includes branch lengths.

# Load fern taxonomy
taxonomy <- ftol_taxonomy %>%
  # Subset to only species in tree
  filter(species %in% phy$tip.label)

# Inspect:
taxonomy

# A tibble: 5,685 × 8
   species      genus   subfamily  family   suborder order  major_clade outgroup
   <chr>        <chr>   <chr>      <chr>    <chr>    <chr>  <chr>       <lgl>   
 1 Acrostichum… Acrost… Parkerioi… Pterida… Pteridi… Polyp… Pteridineae FALSE   
 2 Actiniopter… Actini… Pteridoid… Pterida… Pteridi… Polyp… Pteridineae FALSE   
 3 Actiniopter… Actini… Pteridoid… Pterida… Pteridi… Polyp… Pteridineae FALSE   
 4 Actiniopter… Actini… Pteridoid… Pterida… Pteridi… Polyp… Pteridineae FALSE   
 5 Actiniopter… Actini… Pteridoid… Pterida… Pteridi… Polyp… Pteridineae FALSE   
 6 Onychium_cr… Onychi… Pteridoid… Pterida… Pteridi… Polyp… Pteridineae FALSE   
 7 Onychium_mo… Onychi… Pteridoid… Pterida… Pteridi… Polyp… Pteridineae FALSE   
 8 Onychium_ja… Onychi… Pteridoid… Pterida… Pteridi… Polyp… Pteridineae FALSE   
 9 Onychium_lu… Onychi… Pteridoid… Pterida… Pteridi… Polyp… Pteridineae FALSE   
10 Onychium_pl… Onychi… Pteridoid… Pterida… Pteridi… Polyp… Pteridineae FALSE   
# … with 5,675 more rows
…
# Check that all families are monophyletic or monotypic
family_mono_summary <-
  family_mono_test$family$result %>%
  rownames_to_column("family") %>%
  as_tibble() %>%
  assert(in_set("Yes", "Monotypic"), Monophyly)

# Inspect:
family_mono_summary

# A tibble: 48 × 9
   family            Monophyly MRCA  `#Tips` `Delta-Tips` `#Intruders` Intruders
   <chr>             <chr>     <chr> <chr>   <chr>        <chr>        <chr>    
 1 Pteridaceae       Yes       5696  885     0            0            ""       
 2 Polypodiaceae     Yes       6590  933     0            0            ""       
 3 Davalliaceae      Yes       7522  42      0            0            ""       
 4 Oleandraceae      Yes       7563  10      0            0            ""       
 5 Tectariaceae      Yes       7572  138     0            0            ""       
 6 Nephrolepidaceae  Yes       7709  19      0            0            ""       
 7 Lomariopsidaceae  Yes       7727  44      0            0            ""       
 8 Dryopteridaceae   Yes       7770  964     0            0            ""       
 9 Didymochlaenaceae Yes       8733  9       0            0            ""       
10 Hypodematiaceae   Yes       8741  26      0            0            ""       
# … with 38 more rows, and 2 more variables: #Outliers <chr>, Outliers <chr>
…
