canaper is on CRAN – Joel Nitta
…
# 2. Classify endemism
acacia_canape <- cpr_classify_endem(acacia_rand_res)

Let’s have a look at some of the output.

cpr_rand_test() returns a bunch (54 to be exact!) of metrics about each site in the community matrix, including PE:

acacia_rand_res

# A tibble: 3,037 × 55
   site    pd_obs pd_rand_mean pd_rand_sd pd_obs_z pd_obs_c_upper pd_obs_c_lower
   <chr>    <dbl>        <dbl>      <dbl>    <dbl>          <dbl>          <dbl>
 1 -1025… 0.0145        0.0227    0.00506  -1.62                1             98
 2 -1025… 0.0382        0.0497    0.00745  -1.54                8             91
 3 -1025… 0.0378        0.0369    0.00635   0.138              55             44
 4 -1025… 0.0570        0.0613    0.00829  -0.517              33             66
 5 -1025… 0.0409        0.0419    0.00614  -0.172              41             58
 6 -1025… 0.00998       0.0101    0.00193  -0.0429             49             48
 7 -1025… 0.0187        0.0225    0.00393  -0.958              19             80
 8 -1025… 0.0434        0.0536    0.00902  -1.14               15             84
 9 -1025… 0.0111        0.0101    0.00197   0.495              81             18
10 -1025… 0.0903        0.0876    0.0112    0.240              61             38
# ℹ 3,027 more rows
# ℹ 48 more variables: pd_obs_q <dbl>, pd_obs_p_upper <dbl>,
#   pd_obs_p_lower <dbl>, pd_alt_obs <dbl>, pd_alt_rand_mean <dbl>,
#   pd_alt_rand_sd <dbl>, pd_alt_obs_z <dbl>, pd_alt_obs_c_upper <dbl>,
#   pd_alt_obs_c_lower <dbl>, pd_alt_obs_q <dbl>, pd_alt_obs_p_upper <dbl>,
#   pd_alt_obs_p_lower <dbl>, rpd_obs <dbl>, rpd_rand_mean <dbl>,
#   rpd_rand_sd <dbl>, rpd_obs_z <dbl>, rpd_obs_c_upper <dbl>, …
…
