#fernfriday 2021
…
ff_tweets

# A tibble: 1,345 × 14
   date           url   username followers_count      id content lang 
   <chr>          <chr> <chr>              <int>   <dbl> <chr>   <chr>
 1 2021-12-30T23… http… bmoandk…              79 1.48e18 "the l… en   
 2 2021-12-30T23… http… ALULUAL…             203 1.48e18 "#Fern… und  
 3 2021-12-30T22… http… vatanek…             740 1.48e18 "#Fern… und  
 4 2021-12-30T21… http… ALULUAL…             203 1.48e18 "#Fern… und  
 5 2021-12-30T19… http… ALULUAL…             203 1.48e18 "#Fern… und  
 6 2021-12-30T17… http… ALULUAL…             203 1.48e18 "#Fern… und  
 7 2021-12-30T15… http… ALULUAL…             203 1.48e18 "#Fern… und  
 8 2021-12-24T20… http… duckinw…            1307 1.47e18 "Wishi… en   
 9 2021-12-24T17… http… helecho…             208 1.47e18 "¡Feli… pt   
10 2021-12-24T14… http… KOKESHI…            1506 1.47e18 "＃Fer… en   
# … with 1,335 more rows, and 7 more variables: longitude <dbl>,
#   latitude <dbl>, country <chr>, reply_count <int>,
#   retweet_count <int>, like_count <int>, quote_count <int>
…
Let’s read in the gntagger results, which are again
JSON:

ff_taxa_raw <- jsonlite::fromJSON("ff-2021-tweet-content.txt_gntagger/names.json")

ff_taxa <- ff_taxa_raw[["names"]] %>% 
  as_tibble() %>%
    # I'll call the name output by gntagger "taxon", since
  # not all of them are species
  select(type, annotation, taxon = name, start, end)

ff_taxa

# A tibble: 630 × 5
   type             annotation taxon                  start   end
   <chr>            <chr>      <chr>                  <int> <int>
 1 Binomial         Accepted   Elaphoglossum crinitum   430   452
 2 Binomial         Accepted   Aglaomorpha heraclea    1230  1250
 3 Binomial         Accepted   Arachniodes standishii  1325  1347
 4 Uninomial        Genus      Platycerium             1398  1409
 5 PossibleBinomial Accepted   P. alcicorne            1562  1574
 6 Binomial         Accepted   Angiopteris evecta      2457  2475
 7 Binomial         Accepted   Dryopteris shibipedis   2508  2529
 8 Uninomial        Genus      Pyrrosia                2914  2923
 9 Binomial         Accepted   Doodia australis        3161  3178
10 Binomial         Accepted   Lastreopsis hispida     3189  3209
# … with 620 more rows
…
Next, use the pattern to extract species names from the tweets:

ff_tweets_species <-
ff_tweets %>%
  mutate(
    species = str_match_all(content, species_pattern) %>%
      map(~.[,1]) # converts str_match_all() output to character vector
  ) %>%
  unnest(species) # drops any tweets with no matching species

Let’s take a peek at the results.

select(ff_tweets_species, content, species)

# A tibble: 417 × 2
   content                                                     species
   <chr>                                                       <chr>  
 1 "Wishing all a happy, safe and peacefull #FernFriday Chris… Elapho…
 2 "Quedan pocos días del año.\n今年も残すところあと少し。\n\… Aglaom…
 3 "#FernFriday \n\nArachniodes standishii https://t.co/gqm4z… Arachn…
 4 "#FernFriday 🌃🌿✨\n\nAngiopteris evecta https://t.co/Xvn… Angiop…
 5 "シビイタチシダ Dryopteris shibipedis #Fernfriday https://… Dryopt…
 6 "It’s #FernFriday so here’s an excellent scene of gametoph… Doodia…
 7 "It’s #FernFriday so here’s an excellent scene of gametoph… Lastre…
 8 "It’s #FernFriday so here’s an excellent scene of gametoph… Adiant…
 9 "It’s #FernFriday so here’s an excellent scene of gametoph… Asplen…
10 "Had a fascinating #FernFriday yesterday @OBGHA . Lots of … Adiant…
# … with 407 more rows
…
ff_tweets_species_long

# A tibble: 54 × 3
   count_type  species               count
   <chr>       <chr>                 <int>
 1 reply_count Angiopteris evecta       13
 2 reply_count Ophioglossum vulgatum     9
 3 reply_count Matonia pectinata         6
 4 reply_count Botrychium lunaria        4
 5 reply_count Athyrium filix-femina     4
 6 reply_count Dipteris conjugata        4
 7 reply_count Alsophila firma           4
 8 reply_count Pyrrosia sheareri         4
 9 reply_count Asparagus setaceus        3
10 reply_count Polystichum lonchitis     3
# … with 44 more rows
…
